<?xml version="1.0" standalone="no"?>
<!DOCTYPE svg PUBLIC "-//W3C//DTD SVG 1.1//EN" "http://www.w3.org/Graphics/SVG/1.1/DTD/svg11.dtd">
<svg xmlns="http://www.w3.org/2000/svg">
<metadata>Copyright (C) 2016 by original authors @ fontello.com</metadata>
<defs>
<font id="icons" horiz-adv-x="1000" >
<font-face font-family="icons" font-weight="400" font-stretch="normal" units-per-em="1000" ascent="850" descent="-150" />
<missing-glyph horiz-adv-x="1000" />
<glyph glyph-name="checkbox" unicode="&#xe800;" d="M889 739v-778h-778v778h778m0 111h-778c-61 0-111-50-111-111v-778c0-61 50-111 111-111h778c61 0 111 50 111 111v778c0 61-50 111-111 111l0 0z" horiz-adv-x="1000" />

<glyph glyph-name="checkbox-checked" unicode="&#xe801;" d="M272 456l-78-78 250-250 556 555-78 78-478-478-172 173z m617-495h-778v778h556v111h-556c-61 0-111-50-111-111v-778c0-61 50-111 111-111h778c61 0 111 50 111 111v445h-111v-445z" horiz-adv-x="1000" />

<glyph glyph-name="radio" unicode="&#xe802;" d="M500 850c-275 0-500-225-500-500s225-500 500-500 500 225 500 500-225 500-500 500z m0-900c-220 0-400 180-400 400s180 400 400 400 400-180 400-400-180-400-400-400z" horiz-adv-x="1000" />

<glyph glyph-name="radio-checked" unicode="&#xe803;" d="M500 600c-140 0-250-110-250-250 0-140 110-250 250-250 140 0 250 110 250 250 0 140-110 250-250 250z m0 250c-275 0-500-225-500-500s225-500 500-500 500 225 500 500-225 500-500 500z m0-900c-220 0-400 180-400 400s180 400 400 400 400-180 400-400-180-400-400-400z" horiz-adv-x="1000" />

<glyph glyph-name="info-circled" unicode="&#xe804;" d="M571 82v89q0 8-5 13t-12 5h-54v286q0 8-5 13t-13 5h-178q-8 0-13-5t-5-13v-89q0-8 5-13t13-5h53v-179h-53q-8 0-13-5t-5-13v-89q0-8 5-13t13-5h250q7 0 12 5t5 13z m-71 500v89q0 8-5 13t-13 5h-107q-8 0-13-5t-5-13v-89q0-8 5-13t13-5h107q8 0 13 5t5 13z m357-232q0-117-57-215t-156-156-215-58-216 58-155 156-58 215 58 215 155 156 216 58 215-58 156-156 57-215z" horiz-adv-x="857.1" />

<glyph glyph-name="attention-circled" unicode="&#xe805;" d="M429 779q116 0 215-58t156-156 57-215-57-215-156-156-215-58-216 58-155 156-58 215 58 215 155 156 216 58z m71-696v106q0 8-5 13t-12 5h-107q-8 0-13-5t-6-13v-106q0-8 6-13t13-6h107q7 0 12 6t5 13z m-1 192l10 346q0 7-6 10-5 5-13 5h-123q-8 0-13-5-6-3-6-10l10-346q0-6 5-10t14-4h103q8 0 13 4t6 10z" horiz-adv-x="857.1" />

<glyph glyph-name="attention" unicode="&#xe806;" d="M571 83v106q0 8-5 13t-12 5h-108q-7 0-12-5t-5-13v-106q0-8 5-13t12-6h108q7 0 12 6t5 13z m-1 208l10 257q0 6-5 10-7 6-14 6h-122q-6 0-14-6-5-4-5-12l9-255q0-5 6-9t13-3h103q8 0 14 3t5 9z m-7 522l428-786q20-35-1-70-9-17-26-26t-35-10h-858q-18 0-35 10t-26 26q-21 35-1 70l429 786q9 17 26 27t36 10 36-10 27-27z" horiz-adv-x="1000" />

<glyph glyph-name="cancel-circled" unicode="&#xe807;" d="M641 224q0 14-10 25l-101 101 101 101q10 11 10 25 0 15-10 26l-51 50q-10 11-25 11-15 0-25-11l-101-101-101 101q-11 11-25 11-16 0-26-11l-50-50q-11-11-11-26 0-14 11-25l101-101-101-101q-11-11-11-25 0-15 11-26l50-50q10-11 26-11 14 0 25 11l101 101 101-101q10-11 25-11 15 0 25 11l51 50q10 11 10 26z m216 126q0-117-57-215t-156-156-215-58-216 58-155 156-58 215 58 215 155 156 216 58 215-58 156-156 57-215z" horiz-adv-x="857.1" />

<glyph glyph-name="home" unicode="&#xe808;" d="M0 340q-2 16 21 37l381 351q23 22 57 22t56-22l381-351q23-21 20-37t-30-15h-91v-305q0-32-23-55t-55-23h-517q-32 0-55 23t-23 55v305h-92q-27 0-30 15z" horiz-adv-x="916.5" />

<glyph glyph-name="phone" unicode="&#xe809;" d="M566 555l-22 23q-23 22-23 55t23 55l82 84q23 22 55 22t55-22l24-24z m-350-305l23-22-193-194-23 23q-23 22-23 56 0 32 23 55l82 82q23 23 56 23t55-23z m614 428q10-10 23-28t26-70 6-113-60-154-151-193q-214-214-399-214-101 0-159 58l-18 17 193 194 34-33q18-18 36 0l292 291q7 7 7 17 0 12-7 19l-34 34 192 194z" horiz-adv-x="888" />

<glyph glyph-name="pencil" unicode="&#xe80a;" d="M0-119l60 281 627 628q21 21 51 21t50-20l121-122q21-21 21-50t-21-50l-628-628z m68 69l194 44 24 25-149 149-24-24z" horiz-adv-x="930.2" />

<glyph glyph-name="down" unicode="&#xe80b;" d="M0 283q0 25 18 43t44 18 42-18l244-243v642q0 25 18 43t43 18 43-18 18-43v-642l243 243q18 18 43 18t43-18q18-18 18-43t-18-44l-390-390-391 390q-18 20-18 44z" horiz-adv-x="817.4" />

<glyph glyph-name="left" unicode="&#xe80c;" d="M0 353l390 391q19 18 44 18 25 0 43-18t18-44-18-43l-243-243h642q25 0 43-18t18-43-18-43-43-18h-642l243-243q18-18 18-44t-18-43-43-18-44 18z" horiz-adv-x="938" />

<glyph glyph-name="right" unicode="&#xe80d;" d="M0 347q0 26 18 43t43 17h642l-242 244q-19 18-19 44t19 42q17 19 42 19t44-19l390-390-390-391q-20-18-44-18t-42 18-19 44 19 43l242 242h-642q-25 0-43 18t-18 44z" horiz-adv-x="938" />

<glyph glyph-name="up" unicode="&#xe80e;" d="M0 354q0 26 18 44l391 390 390-390q18-18 18-44 0-26-18-43-18-18-43-18t-43 18l-243 243v-642q0-25-18-43t-43-18q-26 0-44 18t-17 43v642l-244-243q-18-18-43-18t-43 18q-18 17-18 43z" horiz-adv-x="817.4" />

<glyph glyph-name="truck" unicode="&#xe80f;" d="M357 64q0 29-21 51t-50 21-50-21-22-51 22-50 50-21 50 21 21 50z m-214 286h214v143h-88q-7 0-12-5l-109-109q-5-5-5-12v-17z m714-286q0 29-21 51t-50 21-50-21-22-51 22-50 50-21 50 21 21 50z m143 607v-571q0-8-2-15t-8-10-9-6-13-4-13-1-14 0-12 0q0-59-42-101t-101-42-101 42-42 101h-214q0-59-42-101t-101-42-101 42-42 101h-36q-1 0-12 0t-15 0-12 1-13 4-9 6-8 10-2 15q0 15 10 25t25 11v178q0 5 0 20t0 21 2 19 3 21 8 17 13 17l110 110q11 11 28 18t33 7h89v107q0 15 11 26t25 10h571q15 0 25-10t11-26z" horiz-adv-x="1000" />

<glyph glyph-name="help-circled" unicode="&#xe810;" d="M0 350q0 95 37 182t100 149 149 100 183 37q95 0 182-37t149-100 100-149 37-182-37-182-100-150-149-100-182-37q-96 0-183 37t-149 100-100 150-37 182z m333 175l31-101q46 29 92 29 50 0 50-22 0-5-2-8t-6-8-7-5-10-6-9-4l-40-21q-22-12-28-25t-6-37v-38h117v16q0 7 0 10t3 6 6 6q1 0 11 4t17 9 19 10 18 14q19 16 29 36t11 56q0 49-42 83t-106 34q-85 0-148-38z m48-333q0-32 21-49t55-17q33 0 54 17t20 49-20 49-54 18q-35 0-55-18t-21-49z" horiz-adv-x="937.5" />

<glyph glyph-name="star" unicode="&#xe811;" d="M2 460q11 37 101 37h225l69 207v1q19 56 44 75t49 0 43-75l1-1 68-207h226q58 0 85-17t14-47-59-63l-5-4-176-126 67-207 2-2q27-85-4-109t-105 29l-3 2-2 1-177 127-179-128-2-2q-73-52-105-29t-4 109l1 1v2l68 206-177 126-2 2-2 2q-73 52-61 90z" horiz-adv-x="931.2" />

<glyph glyph-name="down-fat" unicode="&#xe812;" d="M5 538q13 23 53 23h147v205q0 21 16 37t37 15h304q22 0 38-15t15-37v-205h147q40 0 53-23t-7-54l-363-582q-1-2-5-6t-12-9-18-6-18 5-13 11l-4 5-363 582q-21 32-7 54z" horiz-adv-x="820.3" />

<glyph glyph-name="left-fat" unicode="&#xe813;" d="M0 350q0 9 5 17t11 14l5 4 581 362q32 21 55 8t22-54v-146h205q21 0 37-16t16-37v-304q0-22-16-38t-37-15h-205v-147q0-40-22-53t-55 7l-581 363q-21 14-21 35z" horiz-adv-x="937.5" />

<glyph glyph-name="right-fat" unicode="&#xe814;" d="M0 198v305q0 21 16 37t37 15h205v147q0 40 22 53t55-8l582-361q20-15 20-35 0-10-5-18t-11-13l-4-4-582-364q-32-21-55-7t-22 53v147h-205q-21 0-37 16t-16 37z" horiz-adv-x="937.5" />

<glyph glyph-name="up-fat" unicode="&#xe815;" d="M5 162q-14 22 7 54l363 582q14 20 34 20 10 0 19-5t12-10l5-5 362-582q21-32 8-54t-54-23h-147v-205q0-21-15-37t-37-16h-305q-21 0-37 16t-15 37v205h-147q-40 0-53 23z" horiz-adv-x="819.3" />

<glyph glyph-name="cancel" unicode="&#xe816;" d="M0 90q0 36 26 62l195 195-195 196q-26 25-26 61t26 61 61 25 61-25l196-196 195 196q25 25 61 25t61-25 25-61-25-61l-195-196 195-195q25-26 25-62t-25-61q-25-25-61-25t-61 25l-195 195-196-195q-25-25-61-25t-61 25q-26 26-26 61z" horiz-adv-x="686.5" />

<glyph glyph-name="ok" unicode="&#xe817;" d="M0 339q0-35 24-60l246-239q24-25 60-25 36 0 60 25l505 495q25 24 25 59t-25 58q-25 25-60 25t-60-25l-445-435-185 181q-25 24-60 24t-61-24q-24-24-24-59z" horiz-adv-x="920.4" />

<glyph glyph-name="mail" unicode="&#xe818;" d="M0 28v644q0 8 2 18l460-460q39-39 95-39 55 0 94 39l460 460q2-9 2-18v-644q0-37-26-62t-62-26h-937q-36 0-62 26t-26 62z m63 728q13 4 25 4h937q12 0 25-4l-463-463q-13-12-31-12t-30 12z" horiz-adv-x="1113.3" />

<glyph glyph-name="star-empty" unicode="&#xe819;" d="M3 436q-12 31 16 50t91 18h242l74 222v1q14 45 33 68t40 23q20 0 39-23t33-68l1-1 73-222h242q63 0 91-18t16-50-64-68l-5-4-190-135 74-221 1-3q19-60 11-91t-40-32q-37 0-88 38l-2 2-3 1-189 136-192-137-3-2q-52-39-88-39-31 0-40 32t11 92l1 3 74 221-190 135-2 3-3 1q-51 37-64 68z m165-26l203-145-21-65-57-173 206 147 205-147-57 173-21 65 203 145h-251l-21 65-58 175-80-240h-251z" horiz-adv-x="997.6" />

<glyph glyph-name="off" unicode="&#xe81a;" d="M857 350q0-87-34-166t-91-137-137-92-166-34-167 34-136 92-92 137-34 166q0 102 45 191t126 151q24 18 54 14t46-28q18-23 14-53t-28-47q-54-41-84-101t-30-127q0-58 23-111t61-91 91-61 111-23 110 23 92 61 61 91 22 111q0 68-30 127t-84 101q-23 18-28 47t14 53q17 24 47 28t53-14q81-61 126-151t45-191z m-357 429v-358q0-29-21-50t-50-21-51 21-21 50v358q0 29 21 50t51 21 50-21 21-50z" horiz-adv-x="857.1" />

<glyph glyph-name="basket" unicode="&#xe81b;" d="M80 850c-5-1-17-4-22-5-39-14-63-53-57-91 1-7 136-514 139-522 6-18 20-34 38-44 8-5 15-7 25-10l8-2 371 0c313 0 373 0 377 1 7 1 18 5 24 8 18 9 33 24 41 41 3 8-4-18 65 239l57 216 107 1c116 0 108 0 122 4 7 3 19 9 26 14 23 17 35 43 34 70-2 34-26 64-59 75-16 5-3 5-165 5-163 0-150 0-165-5-24-8-45-27-53-49-2-3-28-99-62-228-32-121-59-222-59-222 0-2-15-2-289-2l-289 0-1 4c0 3-27 103-59 223-32 121-59 221-60 225-9 23-32 43-57 50-12 3-26 5-37 4z m256-725c-22-2-46-9-65-20-15-9-32-25-41-38-13-17-21-36-25-57-2-11-2-35 0-46 4-21 14-42 27-59 5-6 16-17 22-21 17-15 41-26 64-31 75-15 150 26 172 95 11 33 8 67-8 99-21 41-63 71-110 77-11 2-27 2-36 1z m30-86c16-4 31-17 36-31 13-30-5-64-39-72-8-2-23-2-30 1-24 7-39 26-40 49-1 15 4 28 16 39 7 7 17 13 29 15 7 2 21 2 28-1z m440 87c-67-6-120-49-133-110-8-34-1-71 19-101 22-34 58-56 101-63 12-2 36-2 49 0 32 6 60 20 82 43 21 21 34 46 38 75 1 12 1 32-2 44-8 42-36 76-76 96-12 7-31 12-46 14-7 2-26 2-32 2z m21-85c12-3 23-8 31-16 25-26 18-67-14-84-9-4-14-6-25-6-9 0-11 0-16 1-21 5-37 20-42 40-2 5-2 18-1 23 4 17 16 30 31 37 5 3 12 4 16 5 5 1 15 1 20 0z" horiz-adv-x="1435" />

<glyph glyph-name="drop" unicode="&#xe81c;" d="M344 850c-15-2-29-9-39-20-7-7-11-14-15-25-20-65-48-126-89-198-30-53-60-100-114-177-11-15-22-31-24-34-24-35-42-74-52-115-21-81-11-168 28-242 38-75 102-133 180-164 31-12 65-21 96-23 5-1 11-1 14-2 6 0 33 0 39 0 3 1 8 1 12 1 79 7 155 42 213 99 39 38 68 84 86 136 17 52 22 108 14 162-5 36-16 70-32 102-11 22-18 33-44 71-22 32-38 54-49 71-65 96-111 180-141 256-7 18-13 34-20 58-4 12-8 18-15 25-9 9-20 15-33 18-4 1-12 1-15 1z m-77-578c3-1 6-4 7-6 0-1 2-4 3-7 9-26 23-52 51-92 9-12 12-19 16-29 6-19 6-37 0-55-9-26-29-46-54-55-37-12-76 0-99 31-7 10-12 21-15 35-1 4-1 6-1 17 0 11 0 12 1 18 4 15 8 23 21 42 26 37 40 63 49 89 1 3 3 7 3 8 4 5 12 7 18 4z" horiz-adv-x="697" />

<glyph glyph-name="refill" unicode="&#xe81d;" d="M100 850c-17-2-33-7-50-16-16-7-32-18-45-30-1-1-3-3-3-3 0 0 0 4-1 8l-1 7 0-141 0-141 25 0 25 0 0-58 0-58 13-17 13-17 27 0 28 0 6-65c3-36 6-66 6-67l0-1 24 0c19 0 24 0 24 0 0 0 3 30 6 67l6 66 27 0 28 0 13 17 13 16 0 59 0 58 25 0 25 0 0 158 0 158-2-3c-6-12-17-23-28-31-11-8-23-12-38-14-16-3-34-1-50 4-11 4-20 9-38 20-22 13-32 18-46 22-8 2-10 2-21 2-5 0-10 0-11 0z m399 0c-13-2-29-6-43-12-17-8-36-21-50-34-2-1-3-3-3-2-1 0-1 3-2 7l-1 8 0-142 0-141 25 0 25 0 0-58 0-59 13-16 13-17 28 0c15 0 27 0 27 0 0 0 3-30 6-67l6-66 24 0c19 0 24 0 24 0 0 1 12 132 12 133 0 0 13 0 28 0l27 0 13 17 13 16 0 58 0 59 25 0 25 0 0 158 0 158-2-3c-4-9-13-19-21-26-7-6-17-11-25-14-11-4-22-6-35-6-10 0-18 1-27 3-13 3-24 8-43 20-13 8-19 11-25 14-11 6-21 9-32 11-4 1-21 1-25 1z m401 0c-17-2-32-7-50-16-16-7-32-18-44-30-2-1-3-3-3-3 0 0-1 4-1 8l-1 7 0-141 0-141 25 0 24 0 0-58 0-58 13-17 13-17 28 0 27 0 6-65c3-36 6-66 6-67l0-1 24 0c19 0 24 0 24 0 0 0 3 30 6 67l6 66 28 0 27 0 13 17 13 16 0 59 0 58 25 0 25 0 0 158 0 158-2-3c-6-12-16-23-27-31-12-8-24-12-38-14-17-3-35-1-51 4-10 4-20 9-38 20-22 13-32 18-45 22-8 2-11 2-22 2-5 0-10 0-11 0z m-744-642c-6-2-13-6-16-12 0-1-1-4-2-6-8-25-20-52-38-81-9-14-19-30-34-50-12-18-14-21-18-30-7-13-11-27-12-42-1-6-1-20-1-26 2-9 3-18 6-26 12-36 41-65 77-78 31-11 63-9 93 4 26 12 48 33 61 60 18 36 16 79-4 114-2 5-6 10-16 24-15 22-25 36-34 52-17 29-29 53-36 77-3 8-4 10-7 13-5 5-12 8-19 7z m-25-207c1-1 2-2 4-6 1-4 6-14 9-19 2-3 5-7 7-11 4-6 6-9 7-14 1-2 1-3 1-8 0-5 0-6-1-8-2-9-8-16-16-20-9-4-19-4-28 0-8 5-14 13-16 22-1 3-1 4-1 7 1 8 2 12 8 21 10 13 15 23 18 31 0 2 1 3 1 4 2 2 5 2 7 1z m426 207c-7-2-13-6-16-12-1-1-2-4-3-6-7-25-20-52-38-81-8-14-19-30-33-50-13-18-15-21-19-30-6-13-10-27-12-42-1-6-1-20 0-26 1-9 3-18 5-26 13-36 41-65 78-78 30-11 63-9 92 4 27 12 49 33 61 60 18 36 16 79-3 114-3 5-6 10-17 24-14 22-24 36-33 52-18 29-29 53-37 77-3 8-4 10-7 13-5 5-12 8-18 7z m-25-207c1-1 1-2 3-6 1-4 6-14 9-19 2-3 5-7 7-11 5-6 6-9 8-14 0-2 1-3 1-8 0-5-1-6-1-8-3-9-9-16-17-20-9-4-18-4-27 0-9 5-15 13-17 22 0 3 0 4 0 7 0 8 2 12 8 21 9 13 14 23 17 31 0 2 1 3 2 4 1 2 4 2 7 1z m425 207c-7-2-13-6-16-12-1-1-2-4-3-6-7-25-20-52-38-81-8-14-19-30-33-50-13-18-15-21-19-30-6-13-10-27-12-42-1-6-1-20 0-26 1-9 3-18 5-26 13-36 41-65 78-78 30-11 63-9 92 4 27 12 49 33 61 60 18 36 16 79-3 114-3 5-6 10-17 24-14 22-24 36-33 52-18 29-29 53-37 77-3 8-4 10-7 13-5 5-12 8-18 7z m-25-207c1-1 1-2 3-6 1-4 6-14 9-19 2-3 5-7 7-11 5-6 6-9 8-14 0-2 1-3 1-8 0-5-1-6-1-8-3-9-9-16-17-20-9-4-18-4-27 0-9 5-15 13-17 22 0 3 0 4 0 7 0 8 2 12 8 21 9 13 14 23 17 31 0 2 1 3 2 4 1 2 4 2 7 1z" horiz-adv-x="1134" />

<glyph glyph-name="truck-1" unicode="&#xe81e;" d="M36 849c-17-3-32-19-35-36-1-8-1-739 0-747 2-10 6-16 14-22 14-10 17-11 51-12l25 0 0-10c2-29 8-50 20-73 9-17 18-30 34-46 22-22 43-35 70-44 19-6 33-8 56-8 26 0 45 3 66 10 46 17 89 60 106 107 6 17 9 32 11 56l1 8 136 0 136 0 1-11c3-48 21-87 55-119 15-15 29-25 46-33 39-20 89-24 133-11 45 13 86 47 109 91 12 22 17 44 19 74l1 9 48 0c57 1 57 1 70 10 13 8 17 15 18 31 2 25-15 46-40 49l-5 1 0 150c-1 111-1 153-2 159-2 14-5 24-9 33-10 19-10 20-92 101-69 69-77 77-85 83-12 6-26 13-38 16l-10 3-64 0-64 0 0 73c0 73 0 73-3 79-4 12-15 23-26 27l-6 3-371 0c-211 0-373-1-376-1z m903-273c5-2 147-144 150-150 2-3 2-7 2-17l0-13-136 0-137 0 0 90 0 91 59 0c50 0 59 0 62-1z m-644-456c31-8 57-34 66-65 3-12 3-35 0-46-9-32-35-57-67-66-10-3-34-2-44 1-16 4-26 10-39 22-18 18-28 37-29 61-1 19 3 35 12 50 6 10 21 26 31 32 8 5 21 10 31 12 9 2 31 1 39-1z m637 0c16-5 27-11 39-23 13-12 22-26 27-43 2-10 2-34 0-44-5-17-13-31-26-43-13-12-25-19-41-24-10-2-34-2-44 0-16 5-28 12-41 24-12 12-20 25-25 42-3 11-3 34 0 46 5 16 11 26 22 38 15 16 31 25 51 29 9 1 30 0 38-2z" horiz-adv-x="1227" />

<glyph glyph-name="clock" unicode="&#xe81f;" d="M0 350q0 95 37 182t100 149 150 100 182 37 182-37 149-100 100-149 37-182-37-182-100-150-149-100-182-37-182 37-150 100-100 150-37 182z m117 0q0-96 47-177t128-128 177-47q95 0 176 47t128 128 47 177q0 95-47 176t-128 128-176 47q-72 0-137-28t-112-75-75-112-28-136z m293 0v224q0 24 17 41t42 18 41-18 17-41v-200l142-141q17-17 17-42t-17-41-41-17q-25 0-42 17l-159 158q-1 2-4 5t-3 4q-1 2-2 4l-2 3t-1 4q-1 0-2 5-2 5-2 5-1 6-1 12z" horiz-adv-x="937.5" />

<glyph glyph-name="down-open" unicode="&#xf004;" d="M0 533q0 25 18 43t44 18 42-18l305-303 304 303q18 18 43 18t43-18q18-18 18-43t-18-43l-390-391-391 391q-18 19-18 43z" horiz-adv-x="817.4" />

<glyph glyph-name="up-open" unicode="&#xf005;" d="M0 167q0 26 18 43l391 391 390-391q17-17 17-43 0-26-17-44-18-17-44-17t-43 17l-303 305-305-305q-18-17-43-17t-43 17q-18 18-18 44z" horiz-adv-x="816.9" />

<glyph glyph-name="right-open" unicode="&#xf006;" d="M0 0q0 25 18 43l305 304-305 304q-18 18-18 44t18 43 44 18 43-18l390-391-390-391q-19-18-43-18t-44 18q-18 18-18 44z" horiz-adv-x="495.1" />

<glyph glyph-name="left-open" unicode="&#xf007;" d="M0 353l391 391q18 18 43 18 24 0 43-18 18-18 18-44t-18-43l-304-304 304-305q18-17 18-43t-18-43q-18-18-43-18t-43 18z" horiz-adv-x="495.1" />

<glyph glyph-name="menu" unicode="&#xf008;" d="M68 62q0-30 21-51t51-21h793q30 0 51 21t21 51-21 51-51 21h-793q-29 0-51-21t-21-51z m0 288q0-30 21-51t51-21h793q30 0 51 21t21 51-21 51-51 21h-793q-29 0-51-21t-21-51z m0 288q0-30 21-51t51-21h793q30 0 51 21t21 51-21 51-51 21h-793q-29 0-51-21t-21-51z" horiz-adv-x="1073.2" />

<glyph glyph-name="th-list" unicode="&#xf009;" d="M0 62q0-30 21-51t51-21h32q30 0 51 21t21 51-21 51-51 21h-32q-30 0-51-21t-21-51z m0 288q0-30 21-51t51-21h32q30 0 51 21t21 51-21 51-51 21h-32q-30 0-51-21t-21-51z m0 288q0-30 21-51t51-21h32q30 0 51 21t21 51-21 51-51 21h-32q-30 0-51-21t-21-51z m234-576q0-30 21-51t51-21h559q30 0 51 21t21 51-21 51-51 21h-559q-30 0-51-21t-21-51z m0 288q0-30 21-51t51-21h559q30 0 51 21t21 51-21 51-51 21h-559q-30 0-51-21t-21-51z m0 288q0-30 21-51t51-21h559q30 0 51 21t21 51-21 51-51 21h-559q-30 0-51-21t-21-51z" horiz-adv-x="937.5" />

<glyph glyph-name="th-thumb" unicode="&#xf00a;" d="M0-66v286q0 22 15 37t37 16h285q22 0 37-16t15-37v-286q0-21-15-36t-37-15h-285q-22 0-37 15t-15 36z m0 546v286q0 21 15 36t37 15h285q22 0 37-15t15-36v-286q0-22-15-37t-37-16h-285q-22 0-37 16t-15 37z m547-546v286q0 22 15 37t37 16h286q21 0 37-16t15-37v-286q0-21-15-36t-37-15h-286q-21 0-37 15t-15 36z m0 546v286q0 21 15 36t37 15h286q22 0 37-15t15-36v-286q0-22-15-37t-37-16h-286q-21 0-37 16t-15 37z" horiz-adv-x="937.5" />

<glyph glyph-name="star-half" unicode="&#xf022;" d="M3 450q-12 30 16 47t87 18h233l70 213 0 2q15 43 33 66t39 21v-727l-186-135-3-2q-49-35-82-36t-40 29 10 89l1 1 0 1 70 214-182 130-2 2-3 1q-49 36-61 66z" horiz-adv-x="481" />

<glyph glyph-name="star-half_empty" unicode="&#xf024;" d="M3 436q-12 31 16 50t91 18h242l73 222 1 1q14 45 33 68t40 23v-168l-80-240h-251l203-145-21-65-57-173 206 147v-115l-192-137-3-2q-52-39-88-39-32 0-40 32t11 92l1 3 73 221-189 135-3 3-3 1q-51 37-63 68z" horiz-adv-x="498.5" />

<glyph glyph-name="reply" unicode="&#xf02a;" d="M0 380q0 6 3 13t7 10l3 3 377 274q20 16 35 6t15-41v-111l27-2q96-8 181-54t146-117 94-165 33-197q-61 107-161 175t-223 78q-49 5-97-1v-137q0-30-15-40t-35 5l-377 274q-13 11-13 27z" horiz-adv-x="920.9" />

<glyph glyph-name="retweet" unicode="&#xf02b;" d="M2 268q5 9 21 9h63v344q0 31 22 54t54 22h479l-103-154h-300v-266h63q16 0 21-9t-3-22l-143-234q-6-8-14-8-4 0-7 2t-6 4l-1 2-144 234q-8 13-2 22z m282-264l103 153h300v266h-64q-15 0-21 10t3 21l144 234q5 9 13 9 4 0 7-2t6-4l1-3 144-234q8-12 3-21t-22-10h-63v-343q0-32-22-54t-54-22h-478z" horiz-adv-x="924.8" />

<glyph glyph-name="mobile" unicode="&#xf034;" d="M0-18v736q0 42 29 71t70 29h359q41 0 70-29t29-71v-736q0-42-29-71t-70-30h-359q-41 0-70 29t-29 72z m234 61q0-19 13-32t31-13 31 14 14 31-14 31-31 12-31-12-13-31z" horiz-adv-x="556.6" />

<glyph glyph-name="shuffle" unicode="&#xf03b;" d="M0 34v173h229q28 0 52 10 31-84 98-145-71-38-150-38h-229z m0 458v173h229q65 0 123-25t101-67 68-101 25-123q0-58 41-100t101-42h85q1 0 3 0t4 0v52q0 16 10 22t22-3l234-144q8-5 8-14 0-3-2-7t-4-5l-2-2-234-143q-13-9-22-3t-10 21v54q-1 0-4-1t-3 0h-85q-64 0-123 25t-101 67-67 101-25 122q0 59-42 101t-101 42h-229z m538 136q68 37 150 37h85q1 0 3 0t4 0v54q0 15 10 21t22-3l234-144q8-6 8-14 0-4-2-7t-4-5l-2-2-234-144q-13-8-22-2t-10 21v53q-1 0-4 0t-3-1h-85q-26 0-51-10-32 85-99 146z" horiz-adv-x="1054.7" />

<glyph glyph-name="user" unicode="&#xf061;" d="M0-119q0 9 1 23t11 47 27 49q17 17 68 38t115 43 93 38q38 19 59 56t20 76q0 27-32 63-33 38-53 102t-20 149q0 64 18 113t49 80 71 45 85 15 85-15 71-45 49-80 18-113q0-84-20-149t-52-102q-33-37-33-63 0-39 21-76t59-56q29-15 93-38t114-43 68-38q17-17 27-47t11-51l1-21h-1024z" horiz-adv-x="1024.9" />

<glyph glyph-name="users" unicode="&#xf064;" d="M0 49q20 7 60 22t69 26 50 22q37 19 57 56t21 76q0 27-31 64-19 21-33 60-45 18-45 76 0 43 14 61-5 39-9 82-5 55 26 108t84 84 110 32q43 0 85-19t73-50 48-72 14-83q-4-55-8-82 14-19 14-61 0-58-45-76-15-41-32-60-32-37-32-64 0-39 20-76t58-56q29-15 92-38t113-43 66-38q18-17 28-47t10-51l1-21h-878v168z m705 299q0 34 12 50-5 32-7 67-4 45 21 89t69 72 90 27 89-27 69-72 22-89q-2-35-8-67 12-16 12-50 0-48-36-62-12-33-27-50-9-10-13-16t-9-16-4-20q0-32 17-62t47-46q17-9 42-19t60-22 50-19v-135h-254q0 4 0 11t-3 26-7 36-15 38-23 33q-23 25-53 44t-79 37q27 34 27 78 0 10-5 20t-8 16-12 16q-14 15-27 49-37 16-37 63z" horiz-adv-x="1201.2" />

<glyph glyph-name="trash" unicode="&#xf083;" d="M0 684q0 37 59 67t161 49 222 18q121 0 223-18t161-49 59-67q-10-80-39-227t-55-276-29-138q-6-36-39-68t-81-51-100-31-100-12-100 12-99 31-81 51-39 68q-4 21-33 160t-56 278-34 203z m126-223l38-183 87 75z m6 193q0-31 91-54t219-22q129 0 220 22t91 54q0 32-91 55t-220 22-219-22-91-55z m55-488l21-102 49 42z m8 312l101-87 71 62q-95 6-172 25z m5-246l101-88 96 83-101 87z m49-209q72-31 149-38l-97 83z m91 330l101-88 96 83-99 89z m6-247l102-88 95 83-102 88z m140 121l101-87 92 80-98 89z m14-241q71 8 134 36l-47 41z m8 466l73-66 106 91q-79-20-179-25z m117-105l93-84 41 199z m7-246l44-39 20 96z" horiz-adv-x="884.8" />

<glyph glyph-name="search" unicode="&#xf50d;" d="M11 375q-23 87 0 173t87 150q48 49 110 74t128 25q65 0 127-25t110-74q52-52 77-119t21-137-36-132q28-8 49-29l174-173q35-35 35-85t-35-85q-35-35-85-35t-85 35l-173 174q-22 20-30 49-70-35-149-35-66 0-128 25t-110 73q-64 64-87 151z m101 86q0-93 65-158 66-65 159-65 92 0 157 65t66 158-66 158q-66 66-157 66-92 0-159-66-65-65-65-158z" horiz-adv-x="892.6" />
</font>
</defs>
</svg>